%YAML 1.1
%TAG !u! tag:unity3d.com,2011:
--- !u!1 &1626093001965160374
GameObject:
  m_ObjectHideFlags: 0
  m_CorrespondingSourceObject: {fileID: 0}
  m_PrefabInstance: {fileID: 0}
  m_PrefabAsset: {fileID: 0}
  serializedVersion: 6
  m_Component:
  - component: {fileID: 1626093001965160377}
  m_Layer: 0
  m_Name: Barrel
  m_TagString: Grabable
  m_Icon: {fileID: 0}
  m_NavMeshLayer: 0
  m_StaticEditorFlags: 0
  m_IsActive: 1
--- !u!4 &1626093001965160377
Transform:
  m_ObjectHideFlags: 0
  m_CorrespondingSourceObject: {fileID: 0}
  m_PrefabInstance: {fileID: 0}
  m_PrefabAsset: {fileID: 0}
  m_GameObject: {fileID: 1626093001965160374}
  m_LocalRotation: {x: 0, y: 0, z: 0, w: 1}
  m_LocalPosition: {x: 0, y: 0, z: 0}
  m_LocalScale: {x: 1, y: 1, z: 1}
  m_Children:
  - {fileID: 6047136068009756558}
  m_Father: {fileID: 0}
  m_RootOrder: 0
  m_LocalEulerAnglesHint: {x: 0, y: 0, z: 0}
--- !u!54 &1626093001180910371
Rigidbody:
  m_ObjectHideFlags: 0
  m_CorrespondingSourceObject: {fileID: 0}
  m_PrefabInstance: {fileID: 0}
  m_PrefabAsset: {fileID: 0}
  m_GameObject: {fileID: 7327611603484571037}
  serializedVersion: 2
  m_Mass: 1
  m_Drag: 0
  m_AngularDrag: 0.05
  m_UseGravity: 1
  m_IsKinematic: 0
  m_Interpolate: 0
  m_Constraints: 0
  m_CollisionDetection: 0
--- !u!136 &1626093001180910398
CapsuleCollider:
  m_ObjectHideFlags: 0
  m_CorrespondingSourceObject: {fileID: 0}
  m_PrefabInstance: {fileID: 0}
  m_PrefabAsset: {fileID: 0}
  m_GameObject: {fileID: 7327611603484571037}
  m_Material: {fileID: 0}
  m_IsTrigger: 0
  m_Enabled: 1
  m_Radius: 0.25009233
  m_Height: 1.0068392
  m_Direction: 1
  m_Center: {x: 0.000000074505806, y: 0.5034196, z: -0.000000014901161}
--- !u!114 &1626093001180910399
MonoBehaviour:
  m_ObjectHideFlags: 0
  m_CorrespondingSourceObject: {fileID: 0}
  m_PrefabInstance: {fileID: 0}
  m_PrefabAsset: {fileID: 0}
  m_GameObject: {fileID: 7327611603484571037}
  m_Enabled: 1
  m_EditorHideFlags: 0
  m_Script: {fileID: 11500000, guid: a64ee1237e8d07047a4c0ba9e183bbdf, type: 3}
  m_Name: 
  m_EditorClassIdentifier: 
--- !u!1001 &1626093002801097876
PrefabInstance:
  m_ObjectHideFlags: 0
  serializedVersion: 2
  m_Modification:
    m_TransformParent: {fileID: 1626093001965160377}
    m_Modifications:
    - target: {fileID: -927199367670048503, guid: 665d0ca0d507e03468c0d18811762742,
        type: 3}
      propertyPath: m_Name
      value: mesh
      objectReference: {fileID: 0}
    - target: {fileID: -4216859302048453862, guid: 665d0ca0d507e03468c0d18811762742,
        type: 3}
      propertyPath: m_LocalPosition.x
      value: 0
      objectReference: {fileID: 0}
    - target: {fileID: -4216859302048453862, guid: 665d0ca0d507e03468c0d18811762742,
        type: 3}
      propertyPath: m_LocalPosition.y
      value: 0
      objectReference: {fileID: 0}
    - target: {fileID: -4216859302048453862, guid: 665d0ca0d507e03468c0d18811762742,
        type: 3}
      propertyPath: m_LocalPosition.z
      value: 0
      objectReference: {fileID: 0}
    - target: {fileID: -4216859302048453862, guid: 665d0ca0d507e03468c0d18811762742,
        type: 3}
      propertyPath: m_LocalRotation.x
      value: -0
      objectReference: {fileID: 0}
    - target: {fileID: -4216859302048453862, guid: 665d0ca0d507e03468c0d18811762742,
        type: 3}
      propertyPath: m_LocalRotation.y
      value: -0
      objectReference: {fileID: 0}
    - target: {fileID: -4216859302048453862, guid: 665d0ca0d507e03468c0d18811762742,
        type: 3}
      propertyPath: m_LocalRotation.z
      value: -0
      objectReference: {fileID: 0}
    - target: {fileID: -4216859302048453862, guid: 665d0ca0d507e03468c0d18811762742,
        type: 3}
      propertyPath: m_LocalRotation.w
      value: 1
      objectReference: {fileID: 0}
    - target: {fileID: -4216859302048453862, guid: 665d0ca0d507e03468c0d18811762742,
        type: 3}
      propertyPath: m_RootOrder
      value: 0
      objectReference: {fileID: 0}
    - target: {fileID: -4216859302048453862, guid: 665d0ca0d507e03468c0d18811762742,
        type: 3}
      propertyPath: m_LocalEulerAnglesHint.x
      value: 0
      objectReference: {fileID: 0}
    - target: {fileID: -4216859302048453862, guid: 665d0ca0d507e03468c0d18811762742,
        type: 3}
      propertyPath: m_LocalEulerAnglesHint.y
      value: 0
      objectReference: {fileID: 0}
    - target: {fileID: -4216859302048453862, guid: 665d0ca0d507e03468c0d18811762742,
        type: 3}
      propertyPath: m_LocalEulerAnglesHint.z
      value: 0
      objectReference: {fileID: 0}
    m_RemovedComponents: []
  m_SourcePrefab: {fileID: 100100000, guid: 665d0ca0d507e03468c0d18811762742, type: 3}
--- !u!1 &7327611603484571037 stripped
GameObject:
  m_CorrespondingSourceObject: {fileID: -927199367670048503, guid: 665d0ca0d507e03468c0d18811762742,
    type: 3}
  m_PrefabInstance: {fileID: 1626093002801097876}
  m_PrefabAsset: {fileID: 0}
--- !u!4 &6047136068009756558 stripped
Transform:
  m_CorrespondingSourceObject: {fileID: -4216859302048453862, guid: 665d0ca0d507e03468c0d18811762742,
    type: 3}
  m_PrefabInstance: {fileID: 1626093002801097876}
  m_PrefabAsset: {fileID: 0}
