%YAML 1.1
%TAG !u! tag:unity3d.com,2011:
--- !u!1 &3766801090399674301
GameObject:
  m_ObjectHideFlags: 0
  m_CorrespondingSourceObject: {fileID: 0}
  m_PrefabInstance: {fileID: 0}
  m_PrefabAsset: {fileID: 0}
  serializedVersion: 6
  m_Component:
  - component: {fileID: 3766801090399674300}
  m_Layer: 0
  m_Name: Box
  m_TagString: Grabable
  m_Icon: {fileID: 0}
  m_NavMeshLayer: 0
  m_StaticEditorFlags: 0
  m_IsActive: 1
--- !u!4 &3766801090399674300
Transform:
  m_ObjectHideFlags: 0
  m_CorrespondingSourceObject: {fileID: 0}
  m_PrefabInstance: {fileID: 0}
  m_PrefabAsset: {fileID: 0}
  m_GameObject: {fileID: 3766801090399674301}
  m_LocalRotation: {x: 0, y: 0, z: 0, w: 1}
  m_LocalPosition: {x: 0, y: 0, z: 0}
  m_LocalScale: {x: 1, y: 1, z: 1}
  m_Children:
  - {fileID: 8159653277699108437}
  m_Father: {fileID: 0}
  m_RootOrder: 0
  m_LocalEulerAnglesHint: {x: 0, y: 0, z: 0}
--- !u!54 &3766801090681760399
Rigidbody:
  m_ObjectHideFlags: 0
  m_CorrespondingSourceObject: {fileID: 0}
  m_PrefabInstance: {fileID: 0}
  m_PrefabAsset: {fileID: 0}
  m_GameObject: {fileID: 5145275387710643270}
  serializedVersion: 2
  m_Mass: 1
  m_Drag: 0
  m_AngularDrag: 0.05
  m_UseGravity: 1
  m_IsKinematic: 0
  m_Interpolate: 0
  m_Constraints: 0
  m_CollisionDetection: 0
--- !u!65 &3766801090681760394
BoxCollider:
  m_ObjectHideFlags: 0
  m_CorrespondingSourceObject: {fileID: 0}
  m_PrefabInstance: {fileID: 0}
  m_PrefabAsset: {fileID: 0}
  m_GameObject: {fileID: 5145275387710643270}
  m_Material: {fileID: 0}
  m_IsTrigger: 0
  m_Enabled: 1
  serializedVersion: 2
  m_Size: {x: 0.52502793, y: 0.5538278, z: 0.5257203}
  m_Center: {x: 0, y: 0.2769139, z: 0}
--- !u!114 &3766801090681760395
MonoBehaviour:
  m_ObjectHideFlags: 0
  m_CorrespondingSourceObject: {fileID: 0}
  m_PrefabInstance: {fileID: 0}
  m_PrefabAsset: {fileID: 0}
  m_GameObject: {fileID: 5145275387710643270}
  m_Enabled: 1
  m_EditorHideFlags: 0
  m_Script: {fileID: 11500000, guid: a64ee1237e8d07047a4c0ba9e183bbdf, type: 3}
  m_Name: 
  m_EditorClassIdentifier: 
--- !u!1001 &3766801089278690639
PrefabInstance:
  m_ObjectHideFlags: 0
  serializedVersion: 2
  m_Modification:
    m_TransformParent: {fileID: 3766801090399674300}
    m_Modifications:
    - target: {fileID: -927199367670048503, guid: 4f8d0340a65071d4588ddf6437f1020a,
        type: 3}
      propertyPath: m_Name
      value: mesh
      objectReference: {fileID: 0}
    - target: {fileID: -4216859302048453862, guid: 4f8d0340a65071d4588ddf6437f1020a,
        type: 3}
      propertyPath: m_LocalPosition.x
      value: 0
      objectReference: {fileID: 0}
    - target: {fileID: -4216859302048453862, guid: 4f8d0340a65071d4588ddf6437f1020a,
        type: 3}
      propertyPath: m_LocalPosition.y
      value: 0
      objectReference: {fileID: 0}
    - target: {fileID: -4216859302048453862, guid: 4f8d0340a65071d4588ddf6437f1020a,
        type: 3}
      propertyPath: m_LocalPosition.z
      value: 0
      objectReference: {fileID: 0}
    - target: {fileID: -4216859302048453862, guid: 4f8d0340a65071d4588ddf6437f1020a,
        type: 3}
      propertyPath: m_LocalRotation.x
      value: -0
      objectReference: {fileID: 0}
    - target: {fileID: -4216859302048453862, guid: 4f8d0340a65071d4588ddf6437f1020a,
        type: 3}
      propertyPath: m_LocalRotation.y
      value: -0
      objectReference: {fileID: 0}
    - target: {fileID: -4216859302048453862, guid: 4f8d0340a65071d4588ddf6437f1020a,
        type: 3}
      propertyPath: m_LocalRotation.z
      value: -0
      objectReference: {fileID: 0}
    - target: {fileID: -4216859302048453862, guid: 4f8d0340a65071d4588ddf6437f1020a,
        type: 3}
      propertyPath: m_LocalRotation.w
      value: 1
      objectReference: {fileID: 0}
    - target: {fileID: -4216859302048453862, guid: 4f8d0340a65071d4588ddf6437f1020a,
        type: 3}
      propertyPath: m_RootOrder
      value: 0
      objectReference: {fileID: 0}
    - target: {fileID: -4216859302048453862, guid: 4f8d0340a65071d4588ddf6437f1020a,
        type: 3}
      propertyPath: m_LocalEulerAnglesHint.x
      value: 0
      objectReference: {fileID: 0}
    - target: {fileID: -4216859302048453862, guid: 4f8d0340a65071d4588ddf6437f1020a,
        type: 3}
      propertyPath: m_LocalEulerAnglesHint.y
      value: 0
      objectReference: {fileID: 0}
    - target: {fileID: -4216859302048453862, guid: 4f8d0340a65071d4588ddf6437f1020a,
        type: 3}
      propertyPath: m_LocalEulerAnglesHint.z
      value: 0
      objectReference: {fileID: 0}
    m_RemovedComponents: []
  m_SourcePrefab: {fileID: 100100000, guid: 4f8d0340a65071d4588ddf6437f1020a, type: 3}
--- !u!1 &5145275387710643270 stripped
GameObject:
  m_CorrespondingSourceObject: {fileID: -927199367670048503, guid: 4f8d0340a65071d4588ddf6437f1020a,
    type: 3}
  m_PrefabInstance: {fileID: 3766801089278690639}
  m_PrefabAsset: {fileID: 0}
--- !u!4 &8159653277699108437 stripped
Transform:
  m_CorrespondingSourceObject: {fileID: -4216859302048453862, guid: 4f8d0340a65071d4588ddf6437f1020a,
    type: 3}
  m_PrefabInstance: {fileID: 3766801089278690639}
  m_PrefabAsset: {fileID: 0}
