%YAML 1.1
%TAG !u! tag:unity3d.com,2011:
--- !u!1 &7939055371771095387
GameObject:
  m_ObjectHideFlags: 0
  m_CorrespondingSourceObject: {fileID: 0}
  m_PrefabInstance: {fileID: 0}
  m_PrefabAsset: {fileID: 0}
  serializedVersion: 6
  m_Component:
  - component: {fileID: 3224882142723336754}
  m_Layer: 0
  m_Name: Box_Separate
  m_TagString: Untagged
  m_Icon: {fileID: 0}
  m_NavMeshLayer: 0
  m_StaticEditorFlags: 0
  m_IsActive: 1
--- !u!4 &3224882142723336754
Transform:
  m_ObjectHideFlags: 0
  m_CorrespondingSourceObject: {fileID: 0}
  m_PrefabInstance: {fileID: 0}
  m_PrefabAsset: {fileID: 0}
  m_GameObject: {fileID: 7939055371771095387}
  m_LocalRotation: {x: 0, y: 0, z: 0, w: 1}
  m_LocalPosition: {x: 0, y: 0, z: 0}
  m_LocalScale: {x: 1, y: 1, z: 1}
  m_Children:
  - {fileID: 4623322753066247526}
  m_Father: {fileID: 0}
  m_RootOrder: 0
  m_LocalEulerAnglesHint: {x: 0, y: 0, z: 0}
--- !u!65 &8658889769483319409
BoxCollider:
  m_ObjectHideFlags: 0
  m_CorrespondingSourceObject: {fileID: 0}
  m_PrefabInstance: {fileID: 0}
  m_PrefabAsset: {fileID: 0}
  m_GameObject: {fileID: 8534900000007149429}
  m_Material: {fileID: 0}
  m_IsTrigger: 0
  m_Enabled: 1
  serializedVersion: 2
  m_Size: {x: 0.5192932, y: 0.49885726, z: 0.5284519}
  m_Center: {x: 0.0002399087, y: 0.25057137, z: 0.0013942719}
--- !u!1001 &383900269821759100
PrefabInstance:
  m_ObjectHideFlags: 0
  serializedVersion: 2
  m_Modification:
    m_TransformParent: {fileID: 3224882142723336754}
    m_Modifications:
    - target: {fileID: -927199367670048503, guid: 72f0bb7f546deae47a63a721c5f71e92,
        type: 3}
      propertyPath: m_Name
      value: mesh
      objectReference: {fileID: 0}
    - target: {fileID: -4216859302048453862, guid: 72f0bb7f546deae47a63a721c5f71e92,
        type: 3}
      propertyPath: m_LocalPosition.x
      value: 0
      objectReference: {fileID: 0}
    - target: {fileID: -4216859302048453862, guid: 72f0bb7f546deae47a63a721c5f71e92,
        type: 3}
      propertyPath: m_LocalPosition.y
      value: 0
      objectReference: {fileID: 0}
    - target: {fileID: -4216859302048453862, guid: 72f0bb7f546deae47a63a721c5f71e92,
        type: 3}
      propertyPath: m_LocalPosition.z
      value: 0
      objectReference: {fileID: 0}
    - target: {fileID: -4216859302048453862, guid: 72f0bb7f546deae47a63a721c5f71e92,
        type: 3}
      propertyPath: m_LocalRotation.x
      value: -0
      objectReference: {fileID: 0}
    - target: {fileID: -4216859302048453862, guid: 72f0bb7f546deae47a63a721c5f71e92,
        type: 3}
      propertyPath: m_LocalRotation.y
      value: -0
      objectReference: {fileID: 0}
    - target: {fileID: -4216859302048453862, guid: 72f0bb7f546deae47a63a721c5f71e92,
        type: 3}
      propertyPath: m_LocalRotation.z
      value: -0
      objectReference: {fileID: 0}
    - target: {fileID: -4216859302048453862, guid: 72f0bb7f546deae47a63a721c5f71e92,
        type: 3}
      propertyPath: m_LocalRotation.w
      value: 1
      objectReference: {fileID: 0}
    - target: {fileID: -4216859302048453862, guid: 72f0bb7f546deae47a63a721c5f71e92,
        type: 3}
      propertyPath: m_RootOrder
      value: 0
      objectReference: {fileID: 0}
    - target: {fileID: -4216859302048453862, guid: 72f0bb7f546deae47a63a721c5f71e92,
        type: 3}
      propertyPath: m_LocalEulerAnglesHint.x
      value: 0
      objectReference: {fileID: 0}
    - target: {fileID: -4216859302048453862, guid: 72f0bb7f546deae47a63a721c5f71e92,
        type: 3}
      propertyPath: m_LocalEulerAnglesHint.y
      value: 0
      objectReference: {fileID: 0}
    - target: {fileID: -4216859302048453862, guid: 72f0bb7f546deae47a63a721c5f71e92,
        type: 3}
      propertyPath: m_LocalEulerAnglesHint.z
      value: 0
      objectReference: {fileID: 0}
    m_RemovedComponents: []
  m_SourcePrefab: {fileID: 100100000, guid: 72f0bb7f546deae47a63a721c5f71e92, type: 3}
--- !u!1 &8534900000007149429 stripped
GameObject:
  m_CorrespondingSourceObject: {fileID: -927199367670048503, guid: 72f0bb7f546deae47a63a721c5f71e92,
    type: 3}
  m_PrefabInstance: {fileID: 383900269821759100}
  m_PrefabAsset: {fileID: 0}
--- !u!4 &4623322753066247526 stripped
Transform:
  m_CorrespondingSourceObject: {fileID: -4216859302048453862, guid: 72f0bb7f546deae47a63a721c5f71e92,
    type: 3}
  m_PrefabInstance: {fileID: 383900269821759100}
  m_PrefabAsset: {fileID: 0}
