%YAML 1.1
%TAG !u! tag:unity3d.com,2011:
--- !u!1 &2362690624539959192
GameObject:
  m_ObjectHideFlags: 0
  m_CorrespondingSourceObject: {fileID: 0}
  m_PrefabInstance: {fileID: 0}
  m_PrefabAsset: {fileID: 0}
  serializedVersion: 6
  m_Component:
  - component: {fileID: 2362690624539959193}
  m_Layer: 0
  m_Name: Wide_Box
  m_TagString: Grabable
  m_Icon: {fileID: 0}
  m_NavMeshLayer: 0
  m_StaticEditorFlags: 0
  m_IsActive: 1
--- !u!4 &2362690624539959193
Transform:
  m_ObjectHideFlags: 0
  m_CorrespondingSourceObject: {fileID: 0}
  m_PrefabInstance: {fileID: 0}
  m_PrefabAsset: {fileID: 0}
  m_GameObject: {fileID: 2362690624539959192}
  m_LocalRotation: {x: 0, y: 0, z: 0, w: 1}
  m_LocalPosition: {x: 0, y: 0, z: 0}
  m_LocalScale: {x: 1, y: 1, z: 1}
  m_Children:
  - {fileID: 7328273949120114346}
  m_Father: {fileID: 0}
  m_RootOrder: 0
  m_LocalEulerAnglesHint: {x: 0, y: 0, z: 0}
--- !u!54 &2362690623212447502
Rigidbody:
  m_ObjectHideFlags: 0
  m_CorrespondingSourceObject: {fileID: 0}
  m_PrefabInstance: {fileID: 0}
  m_PrefabAsset: {fileID: 0}
  m_GameObject: {fileID: 6046112790498467001}
  serializedVersion: 2
  m_Mass: 1
  m_Drag: 0
  m_AngularDrag: 0.05
  m_UseGravity: 1
  m_IsKinematic: 0
  m_Interpolate: 0
  m_Constraints: 0
  m_CollisionDetection: 0
--- !u!65 &2362690623212447507
BoxCollider:
  m_ObjectHideFlags: 0
  m_CorrespondingSourceObject: {fileID: 0}
  m_PrefabInstance: {fileID: 0}
  m_PrefabAsset: {fileID: 0}
  m_GameObject: {fileID: 6046112790498467001}
  m_Material: {fileID: 0}
  m_IsTrigger: 0
  m_Enabled: 1
  serializedVersion: 2
  m_Size: {x: 1.1985531, y: 0.6305373, z: 0.6212865}
  m_Center: {x: -0.000000029802322, y: 0.3152628, z: -0.000000014901161}
--- !u!114 &2362690623212447506
MonoBehaviour:
  m_ObjectHideFlags: 0
  m_CorrespondingSourceObject: {fileID: 0}
  m_PrefabInstance: {fileID: 0}
  m_PrefabAsset: {fileID: 0}
  m_GameObject: {fileID: 6046112790498467001}
  m_Enabled: 1
  m_EditorHideFlags: 0
  m_Script: {fileID: 11500000, guid: a64ee1237e8d07047a4c0ba9e183bbdf, type: 3}
  m_Name: 
  m_EditorClassIdentifier: 
--- !u!1001 &2362690624904496560
PrefabInstance:
  m_ObjectHideFlags: 0
  serializedVersion: 2
  m_Modification:
    m_TransformParent: {fileID: 2362690624539959193}
    m_Modifications:
    - target: {fileID: -927199367670048503, guid: 0dc4ccfeaa9f8c845bc2d0e0eac55070,
        type: 3}
      propertyPath: m_Name
      value: mesh
      objectReference: {fileID: 0}
    - target: {fileID: -4216859302048453862, guid: 0dc4ccfeaa9f8c845bc2d0e0eac55070,
        type: 3}
      propertyPath: m_LocalPosition.x
      value: 0
      objectReference: {fileID: 0}
    - target: {fileID: -4216859302048453862, guid: 0dc4ccfeaa9f8c845bc2d0e0eac55070,
        type: 3}
      propertyPath: m_LocalPosition.y
      value: 0
      objectReference: {fileID: 0}
    - target: {fileID: -4216859302048453862, guid: 0dc4ccfeaa9f8c845bc2d0e0eac55070,
        type: 3}
      propertyPath: m_LocalPosition.z
      value: 0
      objectReference: {fileID: 0}
    - target: {fileID: -4216859302048453862, guid: 0dc4ccfeaa9f8c845bc2d0e0eac55070,
        type: 3}
      propertyPath: m_LocalRotation.x
      value: -0
      objectReference: {fileID: 0}
    - target: {fileID: -4216859302048453862, guid: 0dc4ccfeaa9f8c845bc2d0e0eac55070,
        type: 3}
      propertyPath: m_LocalRotation.y
      value: -0
      objectReference: {fileID: 0}
    - target: {fileID: -4216859302048453862, guid: 0dc4ccfeaa9f8c845bc2d0e0eac55070,
        type: 3}
      propertyPath: m_LocalRotation.z
      value: -0
      objectReference: {fileID: 0}
    - target: {fileID: -4216859302048453862, guid: 0dc4ccfeaa9f8c845bc2d0e0eac55070,
        type: 3}
      propertyPath: m_LocalRotation.w
      value: 1
      objectReference: {fileID: 0}
    - target: {fileID: -4216859302048453862, guid: 0dc4ccfeaa9f8c845bc2d0e0eac55070,
        type: 3}
      propertyPath: m_RootOrder
      value: 0
      objectReference: {fileID: 0}
    - target: {fileID: -4216859302048453862, guid: 0dc4ccfeaa9f8c845bc2d0e0eac55070,
        type: 3}
      propertyPath: m_LocalEulerAnglesHint.x
      value: 0
      objectReference: {fileID: 0}
    - target: {fileID: -4216859302048453862, guid: 0dc4ccfeaa9f8c845bc2d0e0eac55070,
        type: 3}
      propertyPath: m_LocalEulerAnglesHint.y
      value: 0
      objectReference: {fileID: 0}
    - target: {fileID: -4216859302048453862, guid: 0dc4ccfeaa9f8c845bc2d0e0eac55070,
        type: 3}
      propertyPath: m_LocalEulerAnglesHint.z
      value: 0
      objectReference: {fileID: 0}
    m_RemovedComponents: []
  m_SourcePrefab: {fileID: 100100000, guid: 0dc4ccfeaa9f8c845bc2d0e0eac55070, type: 3}
--- !u!1 &6046112790498467001 stripped
GameObject:
  m_CorrespondingSourceObject: {fileID: -927199367670048503, guid: 0dc4ccfeaa9f8c845bc2d0e0eac55070,
    type: 3}
  m_PrefabInstance: {fileID: 2362690624904496560}
  m_PrefabAsset: {fileID: 0}
--- !u!4 &7328273949120114346 stripped
Transform:
  m_CorrespondingSourceObject: {fileID: -4216859302048453862, guid: 0dc4ccfeaa9f8c845bc2d0e0eac55070,
    type: 3}
  m_PrefabInstance: {fileID: 2362690624904496560}
  m_PrefabAsset: {fileID: 0}
