%YAML 1.1
%TAG !u! tag:unity3d.com,2011:
--- !u!1 &7470618695032686880
GameObject:
  m_ObjectHideFlags: 0
  m_CorrespondingSourceObject: {fileID: 0}
  m_PrefabInstance: {fileID: 0}
  m_PrefabAsset: {fileID: 0}
  serializedVersion: 6
  m_Component:
  - component: {fileID: 7470618695032686910}
  - component: {fileID: 7470618695032686909}
  - component: {fileID: 7470618695032686908}
  - component: {fileID: 7470618695032686883}
  - component: {fileID: 7470618695032686882}
  - component: {fileID: 7470618695032686881}
  m_Layer: 0
  m_Name: TriggerTypePlatform (1)
  m_TagString: Untagged
  m_Icon: {fileID: 0}
  m_NavMeshLayer: 0
  m_StaticEditorFlags: 0
  m_IsActive: 1
--- !u!4 &7470618695032686910
Transform:
  m_ObjectHideFlags: 0
  m_CorrespondingSourceObject: {fileID: 0}
  m_PrefabInstance: {fileID: 0}
  m_PrefabAsset: {fileID: 0}
  m_GameObject: {fileID: 7470618695032686880}
  m_LocalRotation: {x: 0, y: 0, z: 0, w: 1}
  m_LocalPosition: {x: 0.17000008, y: -0.6, z: 37.7}
  m_LocalScale: {x: 4.2925, y: 1, z: 3.7257}
  m_Children:
  - {fileID: 7470618694118627342}
  m_Father: {fileID: 0}
  m_RootOrder: 0
  m_LocalEulerAnglesHint: {x: 0, y: 0, z: 0}
--- !u!33 &7470618695032686909
MeshFilter:
  m_ObjectHideFlags: 0
  m_CorrespondingSourceObject: {fileID: 0}
  m_PrefabInstance: {fileID: 0}
  m_PrefabAsset: {fileID: 0}
  m_GameObject: {fileID: 7470618695032686880}
  m_Mesh: {fileID: 10202, guid: 0000000000000000e000000000000000, type: 0}
--- !u!23 &7470618695032686908
MeshRenderer:
  m_ObjectHideFlags: 0
  m_CorrespondingSourceObject: {fileID: 0}
  m_PrefabInstance: {fileID: 0}
  m_PrefabAsset: {fileID: 0}
  m_GameObject: {fileID: 7470618695032686880}
  m_Enabled: 1
  m_CastShadows: 1
  m_ReceiveShadows: 1
  m_DynamicOccludee: 1
  m_MotionVectors: 1
  m_LightProbeUsage: 1
  m_ReflectionProbeUsage: 1
  m_RenderingLayerMask: 1
  m_RendererPriority: 0
  m_Materials:
  - {fileID: 10303, guid: 0000000000000000f000000000000000, type: 0}
  m_StaticBatchInfo:
    firstSubMesh: 0
    subMeshCount: 0
  m_StaticBatchRoot: {fileID: 0}
  m_ProbeAnchor: {fileID: 0}
  m_LightProbeVolumeOverride: {fileID: 0}
  m_ScaleInLightmap: 1
  m_PreserveUVs: 0
  m_IgnoreNormalsForChartDetection: 0
  m_ImportantGI: 0
  m_StitchLightmapSeams: 1
  m_SelectedEditorRenderState: 3
  m_MinimumChartSize: 4
  m_AutoUVMaxDistance: 0.5
  m_AutoUVMaxAngle: 89
  m_LightmapParameters: {fileID: 0}
  m_SortingLayerID: 0
  m_SortingLayer: 0
  m_SortingOrder: 0
--- !u!65 &7470618695032686883
BoxCollider:
  m_ObjectHideFlags: 0
  m_CorrespondingSourceObject: {fileID: 0}
  m_PrefabInstance: {fileID: 0}
  m_PrefabAsset: {fileID: 0}
  m_GameObject: {fileID: 7470618695032686880}
  m_Material: {fileID: 0}
  m_IsTrigger: 0
  m_Enabled: 1
  serializedVersion: 2
  m_Size: {x: 1, y: 1, z: 1}
  m_Center: {x: 0, y: 0, z: 0}
--- !u!114 &7470618695032686882
MonoBehaviour:
  m_ObjectHideFlags: 0
  m_CorrespondingSourceObject: {fileID: 0}
  m_PrefabInstance: {fileID: 0}
  m_PrefabAsset: {fileID: 0}
  m_GameObject: {fileID: 7470618695032686880}
  m_Enabled: 1
  m_EditorHideFlags: 0
  m_Script: {fileID: 11500000, guid: 359bb2b147d2b9d459b19c3bee529355, type: 3}
  m_Name: 
  m_EditorClassIdentifier: 
  point_number: 0
  Waypoints:
  - {fileID: 0}
  - {fileID: 0}
  tolerance: 0.08
  speed: 4
  delay_time: 3
  automatic: 0
--- !u!65 &7470618695032686881
BoxCollider:
  m_ObjectHideFlags: 0
  m_CorrespondingSourceObject: {fileID: 0}
  m_PrefabInstance: {fileID: 0}
  m_PrefabAsset: {fileID: 0}
  m_GameObject: {fileID: 7470618695032686880}
  m_Material: {fileID: 0}
  m_IsTrigger: 1
  m_Enabled: 1
  serializedVersion: 2
  m_Size: {x: 1, y: 1.7937622, z: 1}
  m_Center: {x: 0, y: 0.3968811, z: 0}
--- !u!1001 &7339424724147259322
PrefabInstance:
  m_ObjectHideFlags: 0
  serializedVersion: 2
  m_Modification:
    m_TransformParent: {fileID: 7470618695032686910}
    m_Modifications:
    - target: {fileID: 177373188308672439, guid: b34e531128ea9a64892d0779dd08c460,
        type: 3}
      propertyPath: m_Name
      value: platformTrigger
      objectReference: {fileID: 0}
    - target: {fileID: 177373188308672436, guid: b34e531128ea9a64892d0779dd08c460,
        type: 3}
      propertyPath: m_LocalPosition.x
      value: 0
      objectReference: {fileID: 0}
    - target: {fileID: 177373188308672436, guid: b34e531128ea9a64892d0779dd08c460,
        type: 3}
      propertyPath: m_LocalPosition.y
      value: 0.82
      objectReference: {fileID: 0}
    - target: {fileID: 177373188308672436, guid: b34e531128ea9a64892d0779dd08c460,
        type: 3}
      propertyPath: m_LocalPosition.z
      value: 0.026841208
      objectReference: {fileID: 0}
    - target: {fileID: 177373188308672436, guid: b34e531128ea9a64892d0779dd08c460,
        type: 3}
      propertyPath: m_LocalRotation.x
      value: -0
      objectReference: {fileID: 0}
    - target: {fileID: 177373188308672436, guid: b34e531128ea9a64892d0779dd08c460,
        type: 3}
      propertyPath: m_LocalRotation.y
      value: -0
      objectReference: {fileID: 0}
    - target: {fileID: 177373188308672436, guid: b34e531128ea9a64892d0779dd08c460,
        type: 3}
      propertyPath: m_LocalRotation.z
      value: -0
      objectReference: {fileID: 0}
    - target: {fileID: 177373188308672436, guid: b34e531128ea9a64892d0779dd08c460,
        type: 3}
      propertyPath: m_LocalRotation.w
      value: 1
      objectReference: {fileID: 0}
    - target: {fileID: 177373188308672436, guid: b34e531128ea9a64892d0779dd08c460,
        type: 3}
      propertyPath: m_RootOrder
      value: 0
      objectReference: {fileID: 0}
    - target: {fileID: 177373188308672436, guid: b34e531128ea9a64892d0779dd08c460,
        type: 3}
      propertyPath: m_LocalEulerAnglesHint.x
      value: 0
      objectReference: {fileID: 0}
    - target: {fileID: 177373188308672436, guid: b34e531128ea9a64892d0779dd08c460,
        type: 3}
      propertyPath: m_LocalEulerAnglesHint.y
      value: 0
      objectReference: {fileID: 0}
    - target: {fileID: 177373188308672436, guid: b34e531128ea9a64892d0779dd08c460,
        type: 3}
      propertyPath: m_LocalEulerAnglesHint.z
      value: 0
      objectReference: {fileID: 0}
    - target: {fileID: 177373188308672437, guid: b34e531128ea9a64892d0779dd08c460,
        type: 3}
      propertyPath: platform
      value: 
      objectReference: {fileID: 7470618695032686882}
    m_RemovedComponents: []
  m_SourcePrefab: {fileID: 100100000, guid: b34e531128ea9a64892d0779dd08c460, type: 3}
--- !u!4 &7470618694118627342 stripped
Transform:
  m_CorrespondingSourceObject: {fileID: 177373188308672436, guid: b34e531128ea9a64892d0779dd08c460,
    type: 3}
  m_PrefabInstance: {fileID: 7339424724147259322}
  m_PrefabAsset: {fileID: 0}
