%YAML 1.1
%TAG !u! tag:unity3d.com,2011:
--- !u!29 &1
OcclusionCullingSettings:
  m_ObjectHideFlags: 0
  serializedVersion: 2
  m_OcclusionBakeSettings:
    smallestOccluder: 5
    smallestHole: 0.25
    backfaceThreshold: 100
  m_SceneGUID: 00000000000000000000000000000000
  m_OcclusionCullingData: {fileID: 0}
--- !u!104 &2
RenderSettings:
  m_ObjectHideFlags: 0
  serializedVersion: 9
  m_Fog: 0
  m_FogColor: {r: 0.5, g: 0.5, b: 0.5, a: 1}
  m_FogMode: 3
  m_FogDensity: 0.01
  m_LinearFogStart: 0
  m_LinearFogEnd: 300
  m_AmbientSkyColor: {r: 0.212, g: 0.227, b: 0.259, a: 1}
  m_AmbientEquatorColor: {r: 0.114, g: 0.125, b: 0.133, a: 1}
  m_AmbientGroundColor: {r: 0.047, g: 0.043, b: 0.035, a: 1}
  m_AmbientIntensity: 1
  m_AmbientMode: 0
  m_SubtractiveShadowColor: {r: 0.42, g: 0.478, b: 0.627, a: 1}
  m_SkyboxMaterial: {fileID: 10304, guid: 0000000000000000f000000000000000, type: 0}
  m_HaloStrength: 0.5
  m_FlareStrength: 1
  m_FlareFadeSpeed: 3
  m_HaloTexture: {fileID: 0}
  m_SpotCookie: {fileID: 10001, guid: 0000000000000000e000000000000000, type: 0}
  m_DefaultReflectionMode: 0
  m_DefaultReflectionResolution: 128
  m_ReflectionBounces: 1
  m_ReflectionIntensity: 1
  m_CustomReflection: {fileID: 0}
  m_Sun: {fileID: 0}
  m_IndirectSpecularColor: {r: 0, g: 0, b: 0, a: 1}
  m_UseRadianceAmbientProbe: 0
--- !u!157 &3
LightmapSettings:
  m_ObjectHideFlags: 0
  serializedVersion: 11
  m_GIWorkflowMode: 0
  m_GISettings:
    serializedVersion: 2
    m_BounceScale: 1
    m_IndirectOutputScale: 1
    m_AlbedoBoost: 1
    m_EnvironmentLightingMode: 0
    m_EnableBakedLightmaps: 1
    m_EnableRealtimeLightmaps: 1
  m_LightmapEditorSettings:
    serializedVersion: 12
    m_Resolution: 2
    m_BakeResolution: 40
    m_AtlasSize: 1024
    m_AO: 0
    m_AOMaxDistance: 1
    m_CompAOExponent: 1
    m_CompAOExponentDirect: 0
    m_ExtractAmbientOcclusion: 0
    m_Padding: 2
    m_LightmapParameters: {fileID: 0}
    m_LightmapsBakeMode: 1
    m_TextureCompression: 1
    m_FinalGather: 0
    m_FinalGatherFiltering: 1
    m_FinalGatherRayCount: 256
    m_ReflectionCompression: 2
    m_MixedBakeMode: 1
    m_BakeBackend: 0
    m_PVRSampling: 1
    m_PVRDirectSampleCount: 32
    m_PVRSampleCount: 500
    m_PVRBounces: 2
    m_PVREnvironmentSampleCount: 500
    m_PVREnvironmentReferencePointCount: 2048
    m_PVRFilteringMode: 0
    m_PVRDenoiserTypeDirect: 0
    m_PVRDenoiserTypeIndirect: 0
    m_PVRDenoiserTypeAO: 0
    m_PVRFilterTypeDirect: 0
    m_PVRFilterTypeIndirect: 0
    m_PVRFilterTypeAO: 0
    m_PVREnvironmentMIS: 0
    m_PVRCulling: 1
    m_PVRFilteringGaussRadiusDirect: 1
    m_PVRFilteringGaussRadiusIndirect: 5
    m_PVRFilteringGaussRadiusAO: 2
    m_PVRFilteringAtrousPositionSigmaDirect: 0.5
    m_PVRFilteringAtrousPositionSigmaIndirect: 2
    m_PVRFilteringAtrousPositionSigmaAO: 1
    m_ShowResolutionOverlay: 1
    m_ExportTrainingData: 0
  m_LightingDataAsset: {fileID: 0}
  m_UseShadowmask: 0
--- !u!196 &4
NavMeshSettings:
  serializedVersion: 2
  m_ObjectHideFlags: 0
  m_BuildSettings:
    serializedVersion: 2
    agentTypeID: 0
    agentRadius: 0.5
    agentHeight: 2
    agentSlope: 45
    agentClimb: 0.4
    ledgeDropHeight: 0
    maxJumpAcrossDistance: 0
    minRegionArea: 2
    manualCellSize: 0
    cellSize: 0.16666667
    manualTileSize: 0
    tileSize: 256
    accuratePlacement: 0
    debug:
      m_Flags: 0
  m_NavMeshData: {fileID: 0}
--- !u!1001 &79183196
PrefabInstance:
  m_ObjectHideFlags: 0
  serializedVersion: 2
  m_Modification:
    m_TransformParent: {fileID: 1186827597}
    m_Modifications:
    - target: {fileID: 400144, guid: 3446e35d12e694043bb416fe04336479, type: 3}
      propertyPath: m_LocalPosition.x
      value: 0.0008812935
      objectReference: {fileID: 0}
    - target: {fileID: 400144, guid: 3446e35d12e694043bb416fe04336479, type: 3}
      propertyPath: m_LocalPosition.y
      value: 0
      objectReference: {fileID: 0}
    - target: {fileID: 400144, guid: 3446e35d12e694043bb416fe04336479, type: 3}
      propertyPath: m_LocalPosition.z
      value: -3.1528463
      objectReference: {fileID: 0}
    - target: {fileID: 400144, guid: 3446e35d12e694043bb416fe04336479, type: 3}
      propertyPath: m_LocalRotation.x
      value: -0
      objectReference: {fileID: 0}
    - target: {fileID: 400144, guid: 3446e35d12e694043bb416fe04336479, type: 3}
      propertyPath: m_LocalRotation.y
      value: -0
      objectReference: {fileID: 0}
    - target: {fileID: 400144, guid: 3446e35d12e694043bb416fe04336479, type: 3}
      propertyPath: m_LocalRotation.z
      value: -0
      objectReference: {fileID: 0}
    - target: {fileID: 400144, guid: 3446e35d12e694043bb416fe04336479, type: 3}
      propertyPath: m_LocalRotation.w
      value: 1
      objectReference: {fileID: 0}
    - target: {fileID: 400144, guid: 3446e35d12e694043bb416fe04336479, type: 3}
      propertyPath: m_RootOrder
      value: 8
      objectReference: {fileID: 0}
    - target: {fileID: 9500000, guid: 3446e35d12e694043bb416fe04336479, type: 3}
      propertyPath: m_Controller
      value: 
      objectReference: {fileID: 9100000, guid: f0919e0688f155f46b15d72a8f09f3a9, type: 2}
    m_RemovedComponents: []
  m_SourcePrefab: {fileID: 100100000, guid: 3446e35d12e694043bb416fe04336479, type: 3}
--- !u!1001 &99372357
PrefabInstance:
  m_ObjectHideFlags: 0
  serializedVersion: 2
  m_Modification:
    m_TransformParent: {fileID: 1186827597}
    m_Modifications:
    - target: {fileID: 400144, guid: b654aed61038fa746ae6e8cb10c46629, type: 3}
      propertyPath: m_LocalPosition.x
      value: -7.8491187
      objectReference: {fileID: 0}
    - target: {fileID: 400144, guid: b654aed61038fa746ae6e8cb10c46629, type: 3}
      propertyPath: m_LocalPosition.y
      value: 0
      objectReference: {fileID: 0}
    - target: {fileID: 400144, guid: b654aed61038fa746ae6e8cb10c46629, type: 3}
      propertyPath: m_LocalPosition.z
      value: -3.2128463
      objectReference: {fileID: 0}
    - target: {fileID: 400144, guid: b654aed61038fa746ae6e8cb10c46629, type: 3}
      propertyPath: m_LocalRotation.x
      value: -0
      objectReference: {fileID: 0}
    - target: {fileID: 400144, guid: b654aed61038fa746ae6e8cb10c46629, type: 3}
      propertyPath: m_LocalRotation.y
      value: -0
      objectReference: {fileID: 0}
    - target: {fileID: 400144, guid: b654aed61038fa746ae6e8cb10c46629, type: 3}
      propertyPath: m_LocalRotation.z
      value: -0
      objectReference: {fileID: 0}
    - target: {fileID: 400144, guid: b654aed61038fa746ae6e8cb10c46629, type: 3}
      propertyPath: m_LocalRotation.w
      value: 1
      objectReference: {fileID: 0}
    - target: {fileID: 400144, guid: b654aed61038fa746ae6e8cb10c46629, type: 3}
      propertyPath: m_RootOrder
      value: 11
      objectReference: {fileID: 0}
    - target: {fileID: 9500000, guid: b654aed61038fa746ae6e8cb10c46629, type: 3}
      propertyPath: m_Controller
      value: 
      objectReference: {fileID: 9100000, guid: ebfdc46cc5f2af44b8a1a4e83344ab58, type: 2}
    m_RemovedComponents: []
  m_SourcePrefab: {fileID: 100100000, guid: b654aed61038fa746ae6e8cb10c46629, type: 3}
--- !u!4 &128988748 stripped
Transform:
  m_CorrespondingSourceObject: {fileID: 400000, guid: e28c05bf34343fc4b9c4d624651c1639,
    type: 3}
  m_PrefabInstance: {fileID: 1675222763}
  m_PrefabAsset: {fileID: 0}
--- !u!4 &315719841 stripped
Transform:
  m_CorrespondingSourceObject: {fileID: 400144, guid: b654aed61038fa746ae6e8cb10c46629,
    type: 3}
  m_PrefabInstance: {fileID: 99372357}
  m_PrefabAsset: {fileID: 0}
--- !u!1001 &375573273
PrefabInstance:
  m_ObjectHideFlags: 0
  serializedVersion: 2
  m_Modification:
    m_TransformParent: {fileID: 1186827597}
    m_Modifications:
    - target: {fileID: 400144, guid: d85cc1b14f34a2d41a53a2a3b8922756, type: 3}
      propertyPath: m_LocalPosition.x
      value: -13.859118
      objectReference: {fileID: 0}
    - target: {fileID: 400144, guid: d85cc1b14f34a2d41a53a2a3b8922756, type: 3}
      propertyPath: m_LocalPosition.y
      value: 0
      objectReference: {fileID: 0}
    - target: {fileID: 400144, guid: d85cc1b14f34a2d41a53a2a3b8922756, type: 3}
      propertyPath: m_LocalPosition.z
      value: -3.0328462
      objectReference: {fileID: 0}
    - target: {fileID: 400144, guid: d85cc1b14f34a2d41a53a2a3b8922756, type: 3}
      propertyPath: m_LocalRotation.x
      value: -0
      objectReference: {fileID: 0}
    - target: {fileID: 400144, guid: d85cc1b14f34a2d41a53a2a3b8922756, type: 3}
      propertyPath: m_LocalRotation.y
      value: -0
      objectReference: {fileID: 0}
    - target: {fileID: 400144, guid: d85cc1b14f34a2d41a53a2a3b8922756, type: 3}
      propertyPath: m_LocalRotation.z
      value: -0
      objectReference: {fileID: 0}
    - target: {fileID: 400144, guid: d85cc1b14f34a2d41a53a2a3b8922756, type: 3}
      propertyPath: m_LocalRotation.w
      value: 1
      objectReference: {fileID: 0}
    - target: {fileID: 400144, guid: d85cc1b14f34a2d41a53a2a3b8922756, type: 3}
      propertyPath: m_RootOrder
      value: 13
      objectReference: {fileID: 0}
    - target: {fileID: 9500000, guid: d85cc1b14f34a2d41a53a2a3b8922756, type: 3}
      propertyPath: m_Controller
      value: 
      objectReference: {fileID: 9100000, guid: 73e49da138a4e374e8b588a6add720c3, type: 2}
    m_RemovedComponents: []
  m_SourcePrefab: {fileID: 100100000, guid: d85cc1b14f34a2d41a53a2a3b8922756, type: 3}
--- !u!1001 &469142989
PrefabInstance:
  m_ObjectHideFlags: 0
  serializedVersion: 2
  m_Modification:
    m_TransformParent: {fileID: 1186827597}
    m_Modifications:
    - target: {fileID: 400000, guid: 9882ab010b1a86c45acab5ad6a7d11db, type: 3}
      propertyPath: m_LocalPosition.x
      value: -1.2751187
      objectReference: {fileID: 0}
    - target: {fileID: 400000, guid: 9882ab010b1a86c45acab5ad6a7d11db, type: 3}
      propertyPath: m_LocalPosition.y
      value: 0
      objectReference: {fileID: 0}
    - target: {fileID: 400000, guid: 9882ab010b1a86c45acab5ad6a7d11db, type: 3}
      propertyPath: m_LocalPosition.z
      value: -0.022846278
      objectReference: {fileID: 0}
    - target: {fileID: 400000, guid: 9882ab010b1a86c45acab5ad6a7d11db, type: 3}
      propertyPath: m_LocalRotation.x
      value: -0
      objectReference: {fileID: 0}
    - target: {fileID: 400000, guid: 9882ab010b1a86c45acab5ad6a7d11db, type: 3}
      propertyPath: m_LocalRotation.y
      value: -0
      objectReference: {fileID: 0}
    - target: {fileID: 400000, guid: 9882ab010b1a86c45acab5ad6a7d11db, type: 3}
      propertyPath: m_LocalRotation.z
      value: -0
      objectReference: {fileID: 0}
    - target: {fileID: 400000, guid: 9882ab010b1a86c45acab5ad6a7d11db, type: 3}
      propertyPath: m_LocalRotation.w
      value: 1
      objectReference: {fileID: 0}
    - target: {fileID: 400000, guid: 9882ab010b1a86c45acab5ad6a7d11db, type: 3}
      propertyPath: m_RootOrder
      value: 6
      objectReference: {fileID: 0}
    - target: {fileID: 400002, guid: 9882ab010b1a86c45acab5ad6a7d11db, type: 3}
      propertyPath: m_LocalRotation.x
      value: -0.68398947
      objectReference: {fileID: 0}
    - target: {fileID: 400002, guid: 9882ab010b1a86c45acab5ad6a7d11db, type: 3}
      propertyPath: m_LocalRotation.y
      value: 0.18730289
      objectReference: {fileID: 0}
    - target: {fileID: 400002, guid: 9882ab010b1a86c45acab5ad6a7d11db, type: 3}
      propertyPath: m_LocalRotation.z
      value: 0.16148835
      objectReference: {fileID: 0}
    - target: {fileID: 400002, guid: 9882ab010b1a86c45acab5ad6a7d11db, type: 3}
      propertyPath: m_LocalRotation.w
      value: 0.6862926
      objectReference: {fileID: 0}
    - target: {fileID: 9500000, guid: 9882ab010b1a86c45acab5ad6a7d11db, type: 3}
      propertyPath: m_Controller
      value: 
      objectReference: {fileID: 9100000, guid: 84421b82f80eb7f438de6de11df3b943, type: 2}
    m_RemovedComponents: []
  m_SourcePrefab: {fileID: 100100000, guid: 9882ab010b1a86c45acab5ad6a7d11db, type: 3}
--- !u!4 &548190467 stripped
Transform:
  m_CorrespondingSourceObject: {fileID: 400144, guid: ccd8961db8871ab4f906c89931d2aaa4,
    type: 3}
  m_PrefabInstance: {fileID: 1167492754}
  m_PrefabAsset: {fileID: 0}
--- !u!4 &711137006 stripped
Transform:
  m_CorrespondingSourceObject: {fileID: 400000, guid: 92ec2741f7c7c3c478b414f7216e8c50,
    type: 3}
  m_PrefabInstance: {fileID: 1998092345}
  m_PrefabAsset: {fileID: 0}
--- !u!1001 &807663168
PrefabInstance:
  m_ObjectHideFlags: 0
  serializedVersion: 2
  m_Modification:
    m_TransformParent: {fileID: 1186827597}
    m_Modifications:
    - target: {fileID: 100000, guid: e9b9871d27525be438e63f5d64bceca5, type: 3}
      propertyPath: m_IsActive
      value: 1
      objectReference: {fileID: 0}
    - target: {fileID: 400000, guid: e9b9871d27525be438e63f5d64bceca5, type: 3}
      propertyPath: m_LocalPosition.x
      value: 0.0008812935
      objectReference: {fileID: 0}
    - target: {fileID: 400000, guid: e9b9871d27525be438e63f5d64bceca5, type: 3}
      propertyPath: m_LocalPosition.y
      value: -0.56
      objectReference: {fileID: 0}
    - target: {fileID: 400000, guid: e9b9871d27525be438e63f5d64bceca5, type: 3}
      propertyPath: m_LocalPosition.z
      value: -0.022846278
      objectReference: {fileID: 0}
    - target: {fileID: 400000, guid: e9b9871d27525be438e63f5d64bceca5, type: 3}
      propertyPath: m_LocalRotation.x
      value: -0
      objectReference: {fileID: 0}
    - target: {fileID: 400000, guid: e9b9871d27525be438e63f5d64bceca5, type: 3}
      propertyPath: m_LocalRotation.y
      value: -0
      objectReference: {fileID: 0}
    - target: {fileID: 400000, guid: e9b9871d27525be438e63f5d64bceca5, type: 3}
      propertyPath: m_LocalRotation.z
      value: -0
      objectReference: {fileID: 0}
    - target: {fileID: 400000, guid: e9b9871d27525be438e63f5d64bceca5, type: 3}
      propertyPath: m_LocalRotation.w
      value: 1
      objectReference: {fileID: 0}
    - target: {fileID: 400000, guid: e9b9871d27525be438e63f5d64bceca5, type: 3}
      propertyPath: m_RootOrder
      value: 2
      objectReference: {fileID: 0}
    - target: {fileID: 400000, guid: e9b9871d27525be438e63f5d64bceca5, type: 3}
      propertyPath: m_LocalScale.x
      value: 200
      objectReference: {fileID: 0}
    - target: {fileID: 400000, guid: e9b9871d27525be438e63f5d64bceca5, type: 3}
      propertyPath: m_LocalScale.y
      value: 200
      objectReference: {fileID: 0}
    - target: {fileID: 400000, guid: e9b9871d27525be438e63f5d64bceca5, type: 3}
      propertyPath: m_LocalScale.z
      value: 200
      objectReference: {fileID: 0}
    - target: {fileID: 2300000, guid: e9b9871d27525be438e63f5d64bceca5, type: 3}
      propertyPath: m_Materials.Array.data[0]
      value: 
      objectReference: {fileID: 2100000, guid: b100e2f7cd0757445819eac6732593f4, type: 2}
    m_RemovedComponents: []
  m_SourcePrefab: {fileID: 100100000, guid: e9b9871d27525be438e63f5d64bceca5, type: 3}
--- !u!4 &807663169 stripped
Transform:
  m_CorrespondingSourceObject: {fileID: 400000, guid: e9b9871d27525be438e63f5d64bceca5,
    type: 3}
  m_PrefabInstance: {fileID: 807663168}
  m_PrefabAsset: {fileID: 0}
--- !u!4 &814874670 stripped
Transform:
  m_CorrespondingSourceObject: {fileID: 400144, guid: d85cc1b14f34a2d41a53a2a3b8922756,
    type: 3}
  m_PrefabInstance: {fileID: 375573273}
  m_PrefabAsset: {fileID: 0}
--- !u!1001 &848294377
PrefabInstance:
  m_ObjectHideFlags: 0
  serializedVersion: 2
  m_Modification:
    m_TransformParent: {fileID: 1186827597}
    m_Modifications:
    - target: {fileID: 400000, guid: 6da547ce2e5e82142bbda03367993f7f, type: 3}
      propertyPath: m_LocalPosition.x
      value: -3.034119
      objectReference: {fileID: 0}
    - target: {fileID: 400000, guid: 6da547ce2e5e82142bbda03367993f7f, type: 3}
      propertyPath: m_LocalPosition.y
      value: 0
      objectReference: {fileID: 0}
    - target: {fileID: 400000, guid: 6da547ce2e5e82142bbda03367993f7f, type: 3}
      propertyPath: m_LocalPosition.z
      value: -0.022846278
      objectReference: {fileID: 0}
    - target: {fileID: 400000, guid: 6da547ce2e5e82142bbda03367993f7f, type: 3}
      propertyPath: m_LocalRotation.x
      value: -0
      objectReference: {fileID: 0}
    - target: {fileID: 400000, guid: 6da547ce2e5e82142bbda03367993f7f, type: 3}
      propertyPath: m_LocalRotation.y
      value: -0
      objectReference: {fileID: 0}
    - target: {fileID: 400000, guid: 6da547ce2e5e82142bbda03367993f7f, type: 3}
      propertyPath: m_LocalRotation.z
      value: -0
      objectReference: {fileID: 0}
    - target: {fileID: 400000, guid: 6da547ce2e5e82142bbda03367993f7f, type: 3}
      propertyPath: m_LocalRotation.w
      value: 1
      objectReference: {fileID: 0}
    - target: {fileID: 400000, guid: 6da547ce2e5e82142bbda03367993f7f, type: 3}
      propertyPath: m_RootOrder
      value: 5
      objectReference: {fileID: 0}
    - target: {fileID: 9500000, guid: 6da547ce2e5e82142bbda03367993f7f, type: 3}
      propertyPath: m_Controller
      value: 
      objectReference: {fileID: 9100000, guid: ee69b8d4792164849ab5b73a32e16c58, type: 2}
    m_RemovedComponents: []
  m_SourcePrefab: {fileID: 100100000, guid: 6da547ce2e5e82142bbda03367993f7f, type: 3}
--- !u!1001 &973686941
PrefabInstance:
  m_ObjectHideFlags: 0
  serializedVersion: 2
  m_Modification:
    m_TransformParent: {fileID: 1186827597}
    m_Modifications:
    - target: {fileID: 100000, guid: 92ec2741f7c7c3c478b414f7216e8c50, type: 3}
      propertyPath: m_Name
      value: attack_01
      objectReference: {fileID: 0}
    - target: {fileID: 400000, guid: 92ec2741f7c7c3c478b414f7216e8c50, type: 3}
      propertyPath: m_LocalPosition.x
      value: 2.110881
      objectReference: {fileID: 0}
    - target: {fileID: 400000, guid: 92ec2741f7c7c3c478b414f7216e8c50, type: 3}
      propertyPath: m_LocalPosition.y
      value: 0
      objectReference: {fileID: 0}
    - target: {fileID: 400000, guid: 92ec2741f7c7c3c478b414f7216e8c50, type: 3}
      propertyPath: m_LocalPosition.z
      value: -0.022846278
      objectReference: {fileID: 0}
    - target: {fileID: 400000, guid: 92ec2741f7c7c3c478b414f7216e8c50, type: 3}
      propertyPath: m_LocalRotation.x
      value: -0
      objectReference: {fileID: 0}
    - target: {fileID: 400000, guid: 92ec2741f7c7c3c478b414f7216e8c50, type: 3}
      propertyPath: m_LocalRotation.y
      value: -0
      objectReference: {fileID: 0}
    - target: {fileID: 400000, guid: 92ec2741f7c7c3c478b414f7216e8c50, type: 3}
      propertyPath: m_LocalRotation.z
      value: -0
      objectReference: {fileID: 0}
    - target: {fileID: 400000, guid: 92ec2741f7c7c3c478b414f7216e8c50, type: 3}
      propertyPath: m_LocalRotation.w
      value: 1
      objectReference: {fileID: 0}
    - target: {fileID: 400000, guid: 92ec2741f7c7c3c478b414f7216e8c50, type: 3}
      propertyPath: m_RootOrder
      value: 3
      objectReference: {fileID: 0}
    - target: {fileID: 9500000, guid: 92ec2741f7c7c3c478b414f7216e8c50, type: 3}
      propertyPath: m_Controller
      value: 
      objectReference: {fileID: 9100000, guid: aaaf6cb2b0898ef4784637c9f26d326a, type: 2}
    m_RemovedComponents: []
  m_SourcePrefab: {fileID: 100100000, guid: 92ec2741f7c7c3c478b414f7216e8c50, type: 3}
--- !u!1001 &1167492754
PrefabInstance:
  m_ObjectHideFlags: 0
  serializedVersion: 2
  m_Modification:
    m_TransformParent: {fileID: 1186827597}
    m_Modifications:
    - target: {fileID: 400144, guid: ccd8961db8871ab4f906c89931d2aaa4, type: 3}
      propertyPath: m_LocalPosition.x
      value: -10.559119
      objectReference: {fileID: 0}
    - target: {fileID: 400144, guid: ccd8961db8871ab4f906c89931d2aaa4, type: 3}
      propertyPath: m_LocalPosition.y
      value: 0
      objectReference: {fileID: 0}
    - target: {fileID: 400144, guid: ccd8961db8871ab4f906c89931d2aaa4, type: 3}
      propertyPath: m_LocalPosition.z
      value: -2.9028463
      objectReference: {fileID: 0}
    - target: {fileID: 400144, guid: ccd8961db8871ab4f906c89931d2aaa4, type: 3}
      propertyPath: m_LocalRotation.x
      value: -0
      objectReference: {fileID: 0}
    - target: {fileID: 400144, guid: ccd8961db8871ab4f906c89931d2aaa4, type: 3}
      propertyPath: m_LocalRotation.y
      value: -0
      objectReference: {fileID: 0}
    - target: {fileID: 400144, guid: ccd8961db8871ab4f906c89931d2aaa4, type: 3}
      propertyPath: m_LocalRotation.z
      value: -0
      objectReference: {fileID: 0}
    - target: {fileID: 400144, guid: ccd8961db8871ab4f906c89931d2aaa4, type: 3}
      propertyPath: m_LocalRotation.w
      value: 1
      objectReference: {fileID: 0}
    - target: {fileID: 400144, guid: ccd8961db8871ab4f906c89931d2aaa4, type: 3}
      propertyPath: m_RootOrder
      value: 12
      objectReference: {fileID: 0}
    - target: {fileID: 9500000, guid: ccd8961db8871ab4f906c89931d2aaa4, type: 3}
      propertyPath: m_Controller
      value: 
      objectReference: {fileID: 9100000, guid: 412fee942c7f3b0428f548d9d84e8962, type: 2}
    m_RemovedComponents: []
  m_SourcePrefab: {fileID: 100100000, guid: ccd8961db8871ab4f906c89931d2aaa4, type: 3}
--- !u!1 &1186827596
GameObject:
  m_ObjectHideFlags: 0
  m_CorrespondingSourceObject: {fileID: 0}
  m_PrefabInstance: {fileID: 0}
  m_PrefabAsset: {fileID: 0}
  serializedVersion: 6
  m_Component:
  - component: {fileID: 1186827597}
  m_Layer: 0
  m_Name: Scene
  m_TagString: Untagged
  m_Icon: {fileID: 0}
  m_NavMeshLayer: 0
  m_StaticEditorFlags: 0
  m_IsActive: 1
--- !u!4 &1186827597
Transform:
  m_ObjectHideFlags: 0
  m_CorrespondingSourceObject: {fileID: 0}
  m_PrefabInstance: {fileID: 0}
  m_PrefabAsset: {fileID: 0}
  m_GameObject: {fileID: 1186827596}
  m_LocalRotation: {x: 0, y: 0, z: 0, w: 1}
  m_LocalPosition: {x: -0.0008812935, y: 0, z: 0.022846278}
  m_LocalScale: {x: 1, y: 1, z: 1}
  m_Children:
  - {fileID: 2114540310}
  - {fileID: 2059193751}
  - {fileID: 807663169}
  - {fileID: 1511771833}
  - {fileID: 711137006}
  - {fileID: 2001611431}
  - {fileID: 1370523555}
  - {fileID: 128988748}
  - {fileID: 1628862503}
  - {fileID: 1204780352}
  - {fileID: 1366787134}
  - {fileID: 315719841}
  - {fileID: 548190467}
  - {fileID: 814874670}
  m_Father: {fileID: 0}
  m_RootOrder: 0
  m_LocalEulerAnglesHint: {x: 0, y: 0, z: 0}
--- !u!4 &1204780352 stripped
Transform:
  m_CorrespondingSourceObject: {fileID: 400144, guid: c7c7e224a92ec2b4db0dc4ffb7529d8f,
    type: 3}
  m_PrefabInstance: {fileID: 1969981301}
  m_PrefabAsset: {fileID: 0}
--- !u!4 &1366787134 stripped
Transform:
  m_CorrespondingSourceObject: {fileID: 400144, guid: 2a3af7823058cd64eb20162e14c94ce9,
    type: 3}
  m_PrefabInstance: {fileID: 1968287941}
  m_PrefabAsset: {fileID: 0}
--- !u!4 &1370523555 stripped
Transform:
  m_CorrespondingSourceObject: {fileID: 400000, guid: 9882ab010b1a86c45acab5ad6a7d11db,
    type: 3}
  m_PrefabInstance: {fileID: 469142989}
  m_PrefabAsset: {fileID: 0}
--- !u!4 &1511771833 stripped
Transform:
  m_CorrespondingSourceObject: {fileID: 400000, guid: 92ec2741f7c7c3c478b414f7216e8c50,
    type: 3}
  m_PrefabInstance: {fileID: 973686941}
  m_PrefabAsset: {fileID: 0}
--- !u!4 &1628862503 stripped
Transform:
  m_CorrespondingSourceObject: {fileID: 400144, guid: 3446e35d12e694043bb416fe04336479,
    type: 3}
  m_PrefabInstance: {fileID: 79183196}
  m_PrefabAsset: {fileID: 0}
--- !u!1001 &1675222763
PrefabInstance:
  m_ObjectHideFlags: 0
  serializedVersion: 2
  m_Modification:
    m_TransformParent: {fileID: 1186827597}
    m_Modifications:
    - target: {fileID: 400000, guid: e28c05bf34343fc4b9c4d624651c1639, type: 3}
      propertyPath: m_LocalPosition.x
      value: -6.189119
      objectReference: {fileID: 0}
    - target: {fileID: 400000, guid: e28c05bf34343fc4b9c4d624651c1639, type: 3}
      propertyPath: m_LocalPosition.y
      value: 0
      objectReference: {fileID: 0}
    - target: {fileID: 400000, guid: e28c05bf34343fc4b9c4d624651c1639, type: 3}
      propertyPath: m_LocalPosition.z
      value: -0.022846278
      objectReference: {fileID: 0}
    - target: {fileID: 400000, guid: e28c05bf34343fc4b9c4d624651c1639, type: 3}
      propertyPath: m_LocalRotation.x
      value: -0
      objectReference: {fileID: 0}
    - target: {fileID: 400000, guid: e28c05bf34343fc4b9c4d624651c1639, type: 3}
      propertyPath: m_LocalRotation.y
      value: -0
      objectReference: {fileID: 0}
    - target: {fileID: 400000, guid: e28c05bf34343fc4b9c4d624651c1639, type: 3}
      propertyPath: m_LocalRotation.z
      value: -0
      objectReference: {fileID: 0}
    - target: {fileID: 400000, guid: e28c05bf34343fc4b9c4d624651c1639, type: 3}
      propertyPath: m_LocalRotation.w
      value: 1
      objectReference: {fileID: 0}
    - target: {fileID: 400000, guid: e28c05bf34343fc4b9c4d624651c1639, type: 3}
      propertyPath: m_RootOrder
      value: 7
      objectReference: {fileID: 0}
    - target: {fileID: 9500000, guid: e28c05bf34343fc4b9c4d624651c1639, type: 3}
      propertyPath: m_Controller
      value: 
      objectReference: {fileID: 9100000, guid: 7aa8ed952d5e8de4bbe6463646f8b67e, type: 2}
    m_RemovedComponents: []
  m_SourcePrefab: {fileID: 100100000, guid: e28c05bf34343fc4b9c4d624651c1639, type: 3}
--- !u!1001 &1968287941
PrefabInstance:
  m_ObjectHideFlags: 0
  serializedVersion: 2
  m_Modification:
    m_TransformParent: {fileID: 1186827597}
    m_Modifications:
    - target: {fileID: 400144, guid: 2a3af7823058cd64eb20162e14c94ce9, type: 3}
      propertyPath: m_LocalPosition.x
      value: -5.1391187
      objectReference: {fileID: 0}
    - target: {fileID: 400144, guid: 2a3af7823058cd64eb20162e14c94ce9, type: 3}
      propertyPath: m_LocalPosition.y
      value: 0
      objectReference: {fileID: 0}
    - target: {fileID: 400144, guid: 2a3af7823058cd64eb20162e14c94ce9, type: 3}
      propertyPath: m_LocalPosition.z
      value: -3.0728462
      objectReference: {fileID: 0}
    - target: {fileID: 400144, guid: 2a3af7823058cd64eb20162e14c94ce9, type: 3}
      propertyPath: m_LocalRotation.x
      value: -0
      objectReference: {fileID: 0}
    - target: {fileID: 400144, guid: 2a3af7823058cd64eb20162e14c94ce9, type: 3}
      propertyPath: m_LocalRotation.y
      value: -0
      objectReference: {fileID: 0}
    - target: {fileID: 400144, guid: 2a3af7823058cd64eb20162e14c94ce9, type: 3}
      propertyPath: m_LocalRotation.z
      value: -0
      objectReference: {fileID: 0}
    - target: {fileID: 400144, guid: 2a3af7823058cd64eb20162e14c94ce9, type: 3}
      propertyPath: m_LocalRotation.w
      value: 1
      objectReference: {fileID: 0}
    - target: {fileID: 400144, guid: 2a3af7823058cd64eb20162e14c94ce9, type: 3}
      propertyPath: m_RootOrder
      value: 10
      objectReference: {fileID: 0}
    - target: {fileID: 9500000, guid: 2a3af7823058cd64eb20162e14c94ce9, type: 3}
      propertyPath: m_Controller
      value: 
      objectReference: {fileID: 9100000, guid: 6d5d1684e113bd148b2c49abad89a2f5, type: 2}
    m_RemovedComponents: []
  m_SourcePrefab: {fileID: 100100000, guid: 2a3af7823058cd64eb20162e14c94ce9, type: 3}
--- !u!1001 &1969981301
PrefabInstance:
  m_ObjectHideFlags: 0
  serializedVersion: 2
  m_Modification:
    m_TransformParent: {fileID: 1186827597}
    m_Modifications:
    - target: {fileID: 400144, guid: c7c7e224a92ec2b4db0dc4ffb7529d8f, type: 3}
      propertyPath: m_LocalPosition.x
      value: -2.4591188
      objectReference: {fileID: 0}
    - target: {fileID: 400144, guid: c7c7e224a92ec2b4db0dc4ffb7529d8f, type: 3}
      propertyPath: m_LocalPosition.y
      value: 0
      objectReference: {fileID: 0}
    - target: {fileID: 400144, guid: c7c7e224a92ec2b4db0dc4ffb7529d8f, type: 3}
      propertyPath: m_LocalPosition.z
      value: -3.1228461
      objectReference: {fileID: 0}
    - target: {fileID: 400144, guid: c7c7e224a92ec2b4db0dc4ffb7529d8f, type: 3}
      propertyPath: m_LocalRotation.x
      value: -0
      objectReference: {fileID: 0}
    - target: {fileID: 400144, guid: c7c7e224a92ec2b4db0dc4ffb7529d8f, type: 3}
      propertyPath: m_LocalRotation.y
      value: -0
      objectReference: {fileID: 0}
    - target: {fileID: 400144, guid: c7c7e224a92ec2b4db0dc4ffb7529d8f, type: 3}
      propertyPath: m_LocalRotation.z
      value: -0
      objectReference: {fileID: 0}
    - target: {fileID: 400144, guid: c7c7e224a92ec2b4db0dc4ffb7529d8f, type: 3}
      propertyPath: m_LocalRotation.w
      value: 1
      objectReference: {fileID: 0}
    - target: {fileID: 400144, guid: c7c7e224a92ec2b4db0dc4ffb7529d8f, type: 3}
      propertyPath: m_RootOrder
      value: 9
      objectReference: {fileID: 0}
    - target: {fileID: 9500000, guid: c7c7e224a92ec2b4db0dc4ffb7529d8f, type: 3}
      propertyPath: m_Controller
      value: 
      objectReference: {fileID: 9100000, guid: 07a098ee85f212e48baeb839d0c2852d, type: 2}
    m_RemovedComponents: []
  m_SourcePrefab: {fileID: 100100000, guid: c7c7e224a92ec2b4db0dc4ffb7529d8f, type: 3}
--- !u!1001 &1998092345
PrefabInstance:
  m_ObjectHideFlags: 0
  serializedVersion: 2
  m_Modification:
    m_TransformParent: {fileID: 1186827597}
    m_Modifications:
    - target: {fileID: 400000, guid: 92ec2741f7c7c3c478b414f7216e8c50, type: 3}
      propertyPath: m_LocalPosition.x
      value: 0.0008812935
      objectReference: {fileID: 0}
    - target: {fileID: 400000, guid: 92ec2741f7c7c3c478b414f7216e8c50, type: 3}
      propertyPath: m_LocalPosition.y
      value: 0
      objectReference: {fileID: 0}
    - target: {fileID: 400000, guid: 92ec2741f7c7c3c478b414f7216e8c50, type: 3}
      propertyPath: m_LocalPosition.z
      value: -0.022846278
      objectReference: {fileID: 0}
    - target: {fileID: 400000, guid: 92ec2741f7c7c3c478b414f7216e8c50, type: 3}
      propertyPath: m_LocalRotation.x
      value: -0
      objectReference: {fileID: 0}
    - target: {fileID: 400000, guid: 92ec2741f7c7c3c478b414f7216e8c50, type: 3}
      propertyPath: m_LocalRotation.y
      value: -0
      objectReference: {fileID: 0}
    - target: {fileID: 400000, guid: 92ec2741f7c7c3c478b414f7216e8c50, type: 3}
      propertyPath: m_LocalRotation.z
      value: -0
      objectReference: {fileID: 0}
    - target: {fileID: 400000, guid: 92ec2741f7c7c3c478b414f7216e8c50, type: 3}
      propertyPath: m_LocalRotation.w
      value: 1
      objectReference: {fileID: 0}
    - target: {fileID: 400000, guid: 92ec2741f7c7c3c478b414f7216e8c50, type: 3}
      propertyPath: m_RootOrder
      value: 4
      objectReference: {fileID: 0}
    - target: {fileID: 9500000, guid: 92ec2741f7c7c3c478b414f7216e8c50, type: 3}
      propertyPath: m_Controller
      value: 
      objectReference: {fileID: 9100000, guid: 38dde6dcb0e8f854da863afc47888810, type: 2}
    m_RemovedComponents: []
  m_SourcePrefab: {fileID: 100100000, guid: 92ec2741f7c7c3c478b414f7216e8c50, type: 3}
--- !u!4 &2001611431 stripped
Transform:
  m_CorrespondingSourceObject: {fileID: 400000, guid: 6da547ce2e5e82142bbda03367993f7f,
    type: 3}
  m_PrefabInstance: {fileID: 848294377}
  m_PrefabAsset: {fileID: 0}
--- !u!1 &2059193746
GameObject:
  m_ObjectHideFlags: 0
  m_CorrespondingSourceObject: {fileID: 0}
  m_PrefabInstance: {fileID: 0}
  m_PrefabAsset: {fileID: 0}
  serializedVersion: 6
  m_Component:
  - component: {fileID: 2059193751}
  - component: {fileID: 2059193750}
  - component: {fileID: 2059193749}
  - component: {fileID: 2059193748}
  - component: {fileID: 2059193747}
  m_Layer: 0
  m_Name: Main Camera
  m_TagString: MainCamera
  m_Icon: {fileID: 0}
  m_NavMeshLayer: 0
  m_StaticEditorFlags: 0
  m_IsActive: 1
--- !u!81 &2059193747
AudioListener:
  m_ObjectHideFlags: 0
  m_CorrespondingSourceObject: {fileID: 0}
  m_PrefabInstance: {fileID: 0}
  m_PrefabAsset: {fileID: 0}
  m_GameObject: {fileID: 2059193746}
  m_Enabled: 1
--- !u!124 &2059193748
Behaviour:
  m_ObjectHideFlags: 0
  m_CorrespondingSourceObject: {fileID: 0}
  m_PrefabInstance: {fileID: 0}
  m_PrefabAsset: {fileID: 0}
  m_GameObject: {fileID: 2059193746}
  m_Enabled: 1
--- !u!92 &2059193749
Behaviour:
  m_ObjectHideFlags: 0
  m_CorrespondingSourceObject: {fileID: 0}
  m_PrefabInstance: {fileID: 0}
  m_PrefabAsset: {fileID: 0}
  m_GameObject: {fileID: 2059193746}
  m_Enabled: 1
--- !u!20 &2059193750
Camera:
  m_ObjectHideFlags: 0
  m_CorrespondingSourceObject: {fileID: 0}
  m_PrefabInstance: {fileID: 0}
  m_PrefabAsset: {fileID: 0}
  m_GameObject: {fileID: 2059193746}
  m_Enabled: 1
  serializedVersion: 2
  m_ClearFlags: 2
  m_BackGroundColor: {r: 0, g: 0, b: 0, a: 0}
  m_projectionMatrixMode: 1
  m_GateFitMode: 2
  m_FOVAxisMode: 0
  m_SensorSize: {x: 36, y: 24}
  m_LensShift: {x: 0, y: 0}
  m_FocalLength: 50
  m_NormalizedViewPortRect:
    serializedVersion: 2
    x: 0
    y: 0
    width: 1
    height: 1
  near clip plane: 0.3
  far clip plane: 1000
  field of view: 60
  orthographic: 0
  orthographic size: 5
  m_Depth: -1
  m_CullingMask:
    serializedVersion: 2
    m_Bits: 4294967295
  m_RenderingPath: -1
  m_TargetTexture: {fileID: 0}
  m_TargetDisplay: 0
  m_TargetEye: 3
  m_HDR: 0
  m_AllowMSAA: 1
  m_AllowDynamicResolution: 0
  m_ForceIntoRT: 0
  m_OcclusionCulling: 1
  m_StereoConvergence: 10
  m_StereoSeparation: 0.022
--- !u!4 &2059193751
Transform:
  m_ObjectHideFlags: 0
  m_CorrespondingSourceObject: {fileID: 0}
  m_PrefabInstance: {fileID: 0}
  m_PrefabAsset: {fileID: 0}
  m_GameObject: {fileID: 2059193746}
  m_LocalRotation: {x: -0.034401022, y: 0.94292647, z: -0.10304807, w: -0.3147816}
  m_LocalPosition: {x: 7.58, y: 3.43, z: 6.42}
  m_LocalScale: {x: 1, y: 1, z: 1}
  m_Children: []
  m_Father: {fileID: 1186827597}
  m_RootOrder: 1
  m_LocalEulerAnglesHint: {x: 12.474001, y: 216.922, z: 0}
--- !u!1 &2114540308
GameObject:
  m_ObjectHideFlags: 0
  m_CorrespondingSourceObject: {fileID: 0}
  m_PrefabInstance: {fileID: 0}
  m_PrefabAsset: {fileID: 0}
  serializedVersion: 6
  m_Component:
  - component: {fileID: 2114540310}
  - component: {fileID: 2114540309}
  m_Layer: 0
  m_Name: Directional Light
  m_TagString: Untagged
  m_Icon: {fileID: 0}
  m_NavMeshLayer: 0
  m_StaticEditorFlags: 0
  m_IsActive: 1
--- !u!108 &2114540309
Light:
  m_ObjectHideFlags: 0
  m_CorrespondingSourceObject: {fileID: 0}
  m_PrefabInstance: {fileID: 0}
  m_PrefabAsset: {fileID: 0}
  m_GameObject: {fileID: 2114540308}
  m_Enabled: 1
  serializedVersion: 9
  m_Type: 1
  m_Color: {r: 1, g: 0.95686275, b: 0.8392157, a: 1}
  m_Intensity: 1
  m_Range: 10
  m_SpotAngle: 30
  m_InnerSpotAngle: 21.80208
  m_CookieSize: 10
  m_Shadows:
    m_Type: 2
    m_Resolution: -1
    m_CustomResolution: -1
    m_Strength: 1
    m_Bias: 0.05
    m_NormalBias: 0.4
    m_NearPlane: 0.2
    m_CullingMatrixOverride:
      e00: 1
      e01: 0
      e02: 0
      e03: 0
      e10: 0
      e11: 1
      e12: 0
      e13: 0
      e20: 0
      e21: 0
      e22: 1
      e23: 0
      e30: 0
      e31: 0
      e32: 0
      e33: 1
    m_UseCullingMatrixOverride: 0
  m_Cookie: {fileID: 0}
  m_DrawHalo: 0
  m_Flare: {fileID: 0}
  m_RenderMode: 0
  m_CullingMask:
    serializedVersion: 2
    m_Bits: 4294967295
  m_RenderingLayerMask: 1
  m_Lightmapping: 4
  m_LightShadowCasterMode: 0
  m_AreaSize: {x: 1, y: 1}
  m_BounceIntensity: 1
  m_ColorTemperature: 6570
  m_UseColorTemperature: 0
  m_BoundingSphereOverride: {x: 0, y: 0, z: 0, w: 0}
  m_UseBoundingSphereOverride: 0
  m_ShadowRadius: 0
  m_ShadowAngle: 0
--- !u!4 &2114540310
Transform:
  m_ObjectHideFlags: 0
  m_CorrespondingSourceObject: {fileID: 0}
  m_PrefabInstance: {fileID: 0}
  m_PrefabAsset: {fileID: 0}
  m_GameObject: {fileID: 2114540308}
  m_LocalRotation: {x: 0.45484376, y: -0.8144612, z: 0.35076556, w: 0.08205962}
  m_LocalPosition: {x: -3.58, y: -2.63, z: -1.59}
  m_LocalScale: {x: 1, y: 1, z: 1}
  m_Children: []
  m_Father: {fileID: 1186827597}
  m_RootOrder: 0
  m_LocalEulerAnglesHint: {x: 40.242, y: -194.058, z: -63.536003}
